Data Visualization Final
…
names(Combined4)[names(Combined4) == "freq_ssudan"] <- "South Sudan"
names(Combined4)[names(Combined4) == "freq_syria"] <- "Syria"
names(Combined4)[names(Combined4) == "freq_venezuela"] <- "Venezuela"

library(reshape2)
test1<- reshape2::melt(Combined4, id.vars="word")
names(test1)[names(test1) == "value"] <- "count"
names(test1)[names(test1) == "variable"] <- "Country"

emotion_dtm <- test1
emotion_dtm %>%
  group_by(word, Country) 

## # A tibble: 45 x 3
## # Groups:   word, Country [42]
##    word       Country count
##    <chr>      <fct>   <dbl>
##  1 trump      Syria      63
##  2 erdogan    Syria      57
##  3 turkish    Syria      57
##  4 east       Syria      48
##  5 troops     Syria      48
##  6 government Syria      32
##  7 opposition Syria      12
##  8 migrants   Syria       8
##  9 mexico     Syria       4
## 10 regime     Syria      16
## #  with 35 more rows
…
